pipeline_trace.vcd
$date
     May 15, 2024       16:58:37
$end

$version
 SystemC 3.0.0-Accellera --- Mar 29 2024 16:09:51
$end

$timescale
     1 ps
$end

$scope module SystemC $end
$var wire    1  aaaaa  clock       $end
$var wire    1  aaaab  reset       $end
$var wire   32  aaaac  current_state [31:0]  $end
$var wire   32  aaaad  instruction [31:0]  $end
$var wire    6  aaaae  opcode [5:0]  $end
$var wire    5  aaaaf  rs [4:0]  $end
$var wire    5  aaaag  rt [4:0]  $end
$var wire    5  aaaah  rd [4:0]  $end
$var wire   16  aaaai  immediate [15:0]  $end
$var wire   32  aaaaj  jump_address [31:0]  $end
$var wire    6  aaaak  control_signals [5:0]  $end
$var wire   32  aaaal  opA [31:0]  $end
$var wire   32  aaaam  opB [31:0]  $end
$var wire    4  aaaan  aluOp [3:0]  $end
$var wire   32  aaaao  result [31:0]  $end
$var wire    1  aaaap  zero       $end
$var wire   32  aaaaq  address [31:0]  $end
$var wire   32  aaaar  data_in [31:0]  $end
$var wire    1  aaaas  write_enable_memory       $end
$var wire    1  aaaat  read_enable       $end
$var wire   32  aaaau  data_out [31:0]  $end
$var wire    5  aaaav  read_reg1 [4:0]  $end
$var wire    5  aaaaw  read_reg2 [4:0]  $end
$var wire    5  aaaax  write_reg [4:0]  $end
$var wire   32  aaaay  write_data [31:0]  $end
$var wire    1  aaaaz  write_enable       $end
$var wire   32  aaaba  pc [31:0]  $end
$var wire   32  aaabb  address_ifu [31:0]  $end
$var wire    1  aaabc  read_enable_ifu       $end
$upscope $end
$enddefinitions  $end

$comment
All initial values are dumped below at time 0 sec = 0 timescale units.
$end

$dumpvars
1aaaaa
1aaaab
b111111111110111 aaaac
b0 aaaad
b0 aaaae
b0 aaaaf
b0 aaaag
b0 aaaah
b0 aaaai
b0 aaaaj
b0 aaaak
b0 aaaal
b0 aaaam
b0 aaaan
b0 aaaao
1aaaap
b0 aaaaq
b0 aaaar
0aaaas
0aaaat
b0 aaaau
b0 aaaav
b0 aaaaw
b0 aaaax
b0 aaaay
0aaaaz
b0 aaaba
b0 aaabb
1aaabc
$end

#5000
0aaaaa

#10000
1aaaaa
0aaaab
b110000001100010011000000110000 aaaad
b1100 aaaae
b1 aaaaf
b10001 aaaag
b110 aaaah
b11000000110000 aaaai
b11000100110000001100 aaaaj
b1100 aaaak

#15000
0aaaaa

#20000
1aaaaa
b0 aaaac

#25000
0aaaaa

#30000
1aaaaa
b111111111110111 aaaac

#35000
0aaaaa

#40000
1aaaaa

#45000
0aaaaa

#50000
1aaaaa

#55000
0aaaaa

#60000
1aaaaa
b110000001100000011000000110000 aaaad
b10000 aaaag
b11000000110000001100 aaaaj

#65000
0aaaaa

#70000
1aaaaa
b0 aaaac

#75000
0aaaaa

#80000
1aaaaa
b111111111110111 aaaac

#85000
0aaaaa

#90000
1aaaaa

#95000
0aaaaa

#100000
1aaaaa

#105000
0aaaaa

#110000
1aaaaa
b110001001100000011000000110000 aaaad
b1001 aaaaf
b10011000000110000001100 aaaaj

#115000
0aaaaa

#120000
1aaaaa
b0 aaaac

#125000
0aaaaa

#130000
1aaaaa
b111111111110111 aaaac

#135000
0aaaaa

#140000
1aaaaa

#145000
0aaaaa

#150000
1aaaaa

#155000
0aaaaa

#160000
1aaaaa

#165000
0aaaaa

#170000
1aaaaa
b0 aaaac

#175000
0aaaaa

#180000
1aaaaa
b111111111110111 aaaac

#185000
0aaaaa

#190000
1aaaaa

#195000
0aaaaa

#200000
1aaaaa

#205000
0aaaaa

#210000
1aaaaa
b110000001100000011000000110000 aaaad
b1 aaaaf
b11000000110000001100 aaaaj

#215000
0aaaaa

#220000
1aaaaa
b0 aaaac

#225000
0aaaaa

#230000
1aaaaa
b111111111110111 aaaac

