pipeline_trace.vcd
$date
     May 12, 2024       22:24:13
$end

$version
 SystemC 3.0.0-Accellera --- Mar 29 2024 16:09:51
$end

$timescale
     1 ps
$end

$scope module SystemC $end
$var wire    1  aaaaa  clock       $end
$var wire    1  aaaab  reset       $end
$var wire   32  aaaac  current_state [31:0]  $end
$var wire   32  aaaad  instruction [31:0]  $end
$var wire    6  aaaae  opcode [5:0]  $end
$var wire    5  aaaaf  rs [4:0]  $end
$var wire    5  aaaag  rt [4:0]  $end
$var wire    5  aaaah  rd [4:0]  $end
$var wire   16  aaaai  immediate [15:0]  $end
$var wire   32  aaaaj  jump_address [31:0]  $end
$var wire    6  aaaak  control_signals [5:0]  $end
$var wire   32  aaaal  opA [31:0]  $end
$var wire   32  aaaam  opB [31:0]  $end
$var wire    4  aaaan  aluOp [3:0]  $end
$var wire   32  aaaao  result [31:0]  $end
$var wire    1  aaaap  zero       $end
$var wire   32  aaaaq  address [31:0]  $end
$var wire   32  aaaar  data_in [31:0]  $end
$var wire    1  aaaas  write_enable_memory       $end
$var wire    1  aaaat  read_enable       $end
$var wire   32  aaaau  data_out [31:0]  $end
$var wire    5  aaaav  read_reg1 [4:0]  $end
$var wire    5  aaaaw  read_reg2 [4:0]  $end
$var wire    5  aaaax  write_reg [4:0]  $end
$var wire   32  aaaay  write_data [31:0]  $end
$var wire    1  aaaaz  write_enable       $end
$var wire   32  aaaba  pc [31:0]  $end
$var wire   32  aaabb  address_ifu [31:0]  $end
$var wire    1  aaabc  read_enable_ifu       $end
$upscope $end
$enddefinitions  $end

$comment
All initial values are dumped below at time 0 sec = 0 timescale units.
$end

$dumpvars
1aaaaa
0aaaab
b111111111110111 aaaac
b0 aaaad
b0 aaaae
b0 aaaaf
b0 aaaag
b0 aaaah
b0 aaaai
b0 aaaaj
b0 aaaak
b0 aaaal
b0 aaaam
b0 aaaan
b0 aaaao
1aaaap
b0 aaaaq
b0 aaaar
0aaaas
0aaaat
b0 aaaau
b0 aaaav
b0 aaaaw
b0 aaaax
b0 aaaay
0aaaaz
b100 aaaba
b0 aaabb
1aaabc
$end

#5000
0aaaaa

#10000
1aaaaa
1aaaab
b1000010001100000010000000110000 aaaad
b10000 aaaae
b10001 aaaaf
b10000 aaaag
b100 aaaah
b10000000110000 aaaai
b1000110000001000000011000000 aaaaj

#15000
0aaaaa

#20000
1aaaaa
0aaaab

#25000
0aaaaa

#30000
1aaaaa
b0 aaaac

#35000
0aaaaa

#40000
1aaaaa
b111111111110111 aaaac

#45000
0aaaaa

#50000
1aaaaa

#55000
0aaaaa

#60000
1aaaaa

#65000
0aaaaa

#70000
1aaaaa

#75000
0aaaaa

#80000
1aaaaa
b0 aaaac

#85000
0aaaaa

#90000
1aaaaa
b111111111110111 aaaac

#95000
0aaaaa

#100000
1aaaaa

#105000
0aaaaa

#110000
1aaaaa

#115000
0aaaaa

#120000
1aaaaa

#125000
0aaaaa

#130000
1aaaaa
b0 aaaac

#135000
0aaaaa

#140000
1aaaaa
b111111111110111 aaaac

#145000
0aaaaa

#150000
1aaaaa

#155000
0aaaaa

#160000
1aaaaa

#165000
0aaaaa

#170000
1aaaaa

#175000
0aaaaa

#180000
1aaaaa
b0 aaaac

#185000
0aaaaa

#190000
1aaaaa
b111111111110111 aaaac

#195000
0aaaaa

#200000
1aaaaa

#205000
0aaaaa

#210000
1aaaaa

#215000
0aaaaa

#220000
1aaaaa

#225000
0aaaaa

#230000
1aaaaa
b0 aaaac

#235000
0aaaaa

#240000
1aaaaa
b111111111110111 aaaac

#245000
0aaaaa

#250000
1aaaaa

#255000
0aaaaa

#260000
1aaaaa

#265000
0aaaaa

#270000
1aaaaa

#275000
0aaaaa

#280000
1aaaaa
b0 aaaac

#285000
0aaaaa

#290000
1aaaaa
b111111111110111 aaaac

#295000
0aaaaa

#300000
1aaaaa

#305000
0aaaaa

#310000
1aaaaa

#315000
0aaaaa

#320000
1aaaaa

#325000
0aaaaa

#330000
1aaaaa
b0 aaaac

#335000
0aaaaa

#340000
1aaaaa
b111111111110111 aaaac

#345000
0aaaaa

#350000
1aaaaa

#355000
0aaaaa

#360000
1aaaaa

#365000
0aaaaa

#370000
1aaaaa

#375000
0aaaaa

#380000
1aaaaa
b0 aaaac

#385000
0aaaaa

#390000
1aaaaa
b111111111110111 aaaac

#395000
0aaaaa

#400000
1aaaaa

#405000
0aaaaa

#410000
1aaaaa

#415000
0aaaaa

#420000
1aaaaa

#425000
0aaaaa

#430000
1aaaaa
b0 aaaac

#435000
0aaaaa

#440000
1aaaaa
b111111111110111 aaaac

#445000
0aaaaa

#450000
1aaaaa

#455000
0aaaaa

#460000
1aaaaa

#465000
0aaaaa

#470000
1aaaaa

#475000
0aaaaa

#480000
1aaaaa
b0 aaaac

#485000
0aaaaa

#490000
1aaaaa
b111111111110111 aaaac

